%YAML 1.1
%TAG !u! tag:unity3d.com,2011:
--- !u!74 &7400000
AnimationClip:
  m_ObjectHideFlags: 0
  m_PrefabParentObject: {fileID: 0}
  m_PrefabInternal: {fileID: 0}
  m_Name: ThrustfPhy
  serializedVersion: 6
  m_Legacy: 0
  m_Compressed: 0
  m_UseHighQualityCurve: 1
  m_RotationCurves: []
  m_CompressedRotationCurves: []
  m_EulerCurves: []
  m_PositionCurves: []
  m_ScaleCurves: []
  m_FloatCurves:
  - curve:
      serializedVersion: 2
      m_Curve:
      - serializedVersion: 2
        time: 0
        value: 1
        inSlope: Infinity
        outSlope: Infinity
        tangentMode: 103
      - serializedVersion: 2
        time: 0.5000002
        value: 1
        inSlope: Infinity
        outSlope: Infinity
        tangentMode: 103
      m_PreInfinity: 2
      m_PostInfinity: 2
      m_RotationOrder: 4
    attribute: CanAttack
    path: 
    classID: 114
    script: {fileID: 11500000, guid: 580c5d52c1c3d564896bf7601e779056, type: 3}
  m_PPtrCurves:
  - curve:
    - time: 0
      value: {fileID: 21300000, guid: c1ad465c7cb7a5148a6c8576dfe078b0, type: 3}
    - time: 0.016666668
      value: {fileID: 21300002, guid: c1ad465c7cb7a5148a6c8576dfe078b0, type: 3}
    - time: 0.033333335
      value: {fileID: 21300004, guid: c1ad465c7cb7a5148a6c8576dfe078b0, type: 3}
    - time: 0.05
      value: {fileID: 21300006, guid: c1ad465c7cb7a5148a6c8576dfe078b0, type: 3}
    - time: 0.06666667
      value: {fileID: 21300008, guid: c1ad465c7cb7a5148a6c8576dfe078b0, type: 3}
    - time: 0.083333336
      value: {fileID: 21300010, guid: c1ad465c7cb7a5148a6c8576dfe078b0, type: 3}
    - time: 0.1
      value: {fileID: 21300012, guid: c1ad465c7cb7a5148a6c8576dfe078b0, type: 3}
    - time: 0.11666667
      value: {fileID: 21300014, guid: c1ad465c7cb7a5148a6c8576dfe078b0, type: 3}
    - time: 0.13333334
      value: {fileID: 21300016, guid: c1ad465c7cb7a5148a6c8576dfe078b0, type: 3}
    - time: 0.15
      value: {fileID: 21300018, guid: c1ad465c7cb7a5148a6c8576dfe078b0, type: 3}
    - time: 0.16666667
      value: {fileID: 21300020, guid: c1ad465c7cb7a5148a6c8576dfe078b0, type: 3}
    - time: 0.18333334
      value: {fileID: 21300022, guid: c1ad465c7cb7a5148a6c8576dfe078b0, type: 3}
    - time: 0.2
      value: {fileID: 21300024, guid: c1ad465c7cb7a5148a6c8576dfe078b0, type: 3}
    - time: 0.21666667
      value: {fileID: 21300026, guid: c1ad465c7cb7a5148a6c8576dfe078b0, type: 3}
    - time: 0.23333333
      value: {fileID: 21300028, guid: c1ad465c7cb7a5148a6c8576dfe078b0, type: 3}
    - time: 0.25
      value: {fileID: 21300030, guid: c1ad465c7cb7a5148a6c8576dfe078b0, type: 3}
    - time: 0.26666668
      value: {fileID: 21300032, guid: c1ad465c7cb7a5148a6c8576dfe078b0, type: 3}
    - time: 0.28333336
      value: {fileID: 21300034, guid: c1ad465c7cb7a5148a6c8576dfe078b0, type: 3}
    - time: 0.30000004
      value: {fileID: 21300036, guid: c1ad465c7cb7a5148a6c8576dfe078b0, type: 3}
    - time: 0.31666672
      value: {fileID: 21300038, guid: c1ad465c7cb7a5148a6c8576dfe078b0, type: 3}
    - time: 0.3333334
      value: {fileID: 21300040, guid: c1ad465c7cb7a5148a6c8576dfe078b0, type: 3}
    - time: 0.35000008
      value: {fileID: 21300042, guid: c1ad465c7cb7a5148a6c8576dfe078b0, type: 3}
    - time: 0.36666676
      value: {fileID: 21300044, guid: c1ad465c7cb7a5148a6c8576dfe078b0, type: 3}
    - time: 0.38333344
      value: {fileID: 21300046, guid: c1ad465c7cb7a5148a6c8576dfe078b0, type: 3}
    - time: 0.40000013
      value: {fileID: 21300048, guid: c1ad465c7cb7a5148a6c8576dfe078b0, type: 3}
    - time: 0.4166668
      value: {fileID: 21300050, guid: c1ad465c7cb7a5148a6c8576dfe078b0, type: 3}
    - time: 0.4333335
      value: {fileID: 21300052, guid: c1ad465c7cb7a5148a6c8576dfe078b0, type: 3}
    - time: 0.45000017
      value: {fileID: 21300054, guid: c1ad465c7cb7a5148a6c8576dfe078b0, type: 3}
    - time: 0.46666685
      value: {fileID: 21300056, guid: c1ad465c7cb7a5148a6c8576dfe078b0, type: 3}
    - time: 0.48333353
      value: {fileID: 21300058, guid: c1ad465c7cb7a5148a6c8576dfe078b0, type: 3}
    attribute: m_Sprite
    path: 
    classID: 212
    script: {fileID: 0}
  m_SampleRate: 60
  m_WrapMode: 0
  m_Bounds:
    m_Center: {x: 0, y: 0, z: 0}
    m_Extent: {x: 0, y: 0, z: 0}
  m_ClipBindingConstant:
    genericBindings:
    - serializedVersion: 2
      path: 0
      attribute: 930100575
      script: {fileID: 11500000, guid: 580c5d52c1c3d564896bf7601e779056, type: 3}
      typeID: 114
      customType: 0
      isPPtrCurve: 0
    - serializedVersion: 2
      path: 0
      attribute: 0
      script: {fileID: 0}
      typeID: 212
      customType: 23
      isPPtrCurve: 1
    pptrCurveMapping:
    - {fileID: 21300000, guid: c1ad465c7cb7a5148a6c8576dfe078b0, type: 3}
    - {fileID: 21300002, guid: c1ad465c7cb7a5148a6c8576dfe078b0, type: 3}
    - {fileID: 21300004, guid: c1ad465c7cb7a5148a6c8576dfe078b0, type: 3}
    - {fileID: 21300006, guid: c1ad465c7cb7a5148a6c8576dfe078b0, type: 3}
    - {fileID: 21300008, guid: c1ad465c7cb7a5148a6c8576dfe078b0, type: 3}
    - {fileID: 21300010, guid: c1ad465c7cb7a5148a6c8576dfe078b0, type: 3}
    - {fileID: 21300012, guid: c1ad465c7cb7a5148a6c8576dfe078b0, type: 3}
    - {fileID: 21300014, guid: c1ad465c7cb7a5148a6c8576dfe078b0, type: 3}
    - {fileID: 21300016, guid: c1ad465c7cb7a5148a6c8576dfe078b0, type: 3}
    - {fileID: 21300018, guid: c1ad465c7cb7a5148a6c8576dfe078b0, type: 3}
    - {fileID: 21300020, guid: c1ad465c7cb7a5148a6c8576dfe078b0, type: 3}
    - {fileID: 21300022, guid: c1ad465c7cb7a5148a6c8576dfe078b0, type: 3}
    - {fileID: 21300024, guid: c1ad465c7cb7a5148a6c8576dfe078b0, type: 3}
    - {fileID: 21300026, guid: c1ad465c7cb7a5148a6c8576dfe078b0, type: 3}
    - {fileID: 21300028, guid: c1ad465c7cb7a5148a6c8576dfe078b0, type: 3}
    - {fileID: 21300030, guid: c1ad465c7cb7a5148a6c8576dfe078b0, type: 3}
    - {fileID: 21300032, guid: c1ad465c7cb7a5148a6c8576dfe078b0, type: 3}
    - {fileID: 21300034, guid: c1ad465c7cb7a5148a6c8576dfe078b0, type: 3}
    - {fileID: 21300036, guid: c1ad465c7cb7a5148a6c8576dfe078b0, type: 3}
    - {fileID: 21300038, guid: c1ad465c7cb7a5148a6c8576dfe078b0, type: 3}
    - {fileID: 21300040, guid: c1ad465c7cb7a5148a6c8576dfe078b0, type: 3}
    - {fileID: 21300042, guid: c1ad465c7cb7a5148a6c8576dfe078b0, type: 3}
    - {fileID: 21300044, guid: c1ad465c7cb7a5148a6c8576dfe078b0, type: 3}
    - {fileID: 21300046, guid: c1ad465c7cb7a5148a6c8576dfe078b0, type: 3}
    - {fileID: 21300048, guid: c1ad465c7cb7a5148a6c8576dfe078b0, type: 3}
    - {fileID: 21300050, guid: c1ad465c7cb7a5148a6c8576dfe078b0, type: 3}
    - {fileID: 21300052, guid: c1ad465c7cb7a5148a6c8576dfe078b0, type: 3}
    - {fileID: 21300054, guid: c1ad465c7cb7a5148a6c8576dfe078b0, type: 3}
    - {fileID: 21300056, guid: c1ad465c7cb7a5148a6c8576dfe078b0, type: 3}
    - {fileID: 21300058, guid: c1ad465c7cb7a5148a6c8576dfe078b0, type: 3}
  m_AnimationClipSettings:
    serializedVersion: 2
    m_AdditiveReferencePoseClip: {fileID: 0}
    m_AdditiveReferencePoseTime: 0
    m_StartTime: 0
    m_StopTime: 0.5000002
    m_OrientationOffsetY: 0
    m_Level: 0
    m_CycleOffset: 0
    m_HasAdditiveReferencePose: 0
    m_LoopTime: 0
    m_LoopBlend: 0
    m_LoopBlendOrientation: 0
    m_LoopBlendPositionY: 0
    m_LoopBlendPositionXZ: 0
    m_KeepOriginalOrientation: 0
    m_KeepOriginalPositionY: 1
    m_KeepOriginalPositionXZ: 0
    m_HeightFromFeet: 0
    m_Mirror: 0
  m_EditorCurves:
  - curve:
      serializedVersion: 2
      m_Curve:
      - serializedVersion: 2
        time: 0
        value: 1
        inSlope: Infinity
        outSlope: Infinity
        tangentMode: 103
      - serializedVersion: 2
        time: 0.5000002
        value: 1
        inSlope: Infinity
        outSlope: Infinity
        tangentMode: 103
      m_PreInfinity: 2
      m_PostInfinity: 2
      m_RotationOrder: 4
    attribute: CanAttack
    path: 
    classID: 114
    script: {fileID: 11500000, guid: 580c5d52c1c3d564896bf7601e779056, type: 3}
  m_EulerEditorCurves: []
  m_HasGenericRootTransform: 0
  m_HasMotionFloatCurves: 0
  m_GenerateMotionCurves: 0
  m_Events:
  - time: 0.06666667
    functionName: Thrustf
    data: 
    objectReferenceParameter: {fileID: 0}
    floatParameter: 0
    intParameter: 0
    messageOptions: 0
  - time: 0.083333336
    functionName: Thrustf
    data: 
    objectReferenceParameter: {fileID: 0}
    floatParameter: 0
    intParameter: 0
    messageOptions: 0
  - time: 0.1
    functionName: Thrustf
    data: 
    objectReferenceParameter: {fileID: 0}
    floatParameter: 0
    intParameter: 0
    messageOptions: 0
  - time: 0.11666667
    functionName: Thrustf
    data: 
    objectReferenceParameter: {fileID: 0}
    floatParameter: 0
    intParameter: 0
    messageOptions: 0
  - time: 0.13333334
    functionName: Thrustf
    data: 
    objectReferenceParameter: {fileID: 0}
    floatParameter: 0
    intParameter: 0
    messageOptions: 0
  - time: 0.15
    functionName: Thrustf
    data: 
    objectReferenceParameter: {fileID: 0}
    floatParameter: 0
    intParameter: 0
    messageOptions: 0
  - time: 0.16666667
    functionName: Thrustf
    data: 
    objectReferenceParameter: {fileID: 0}
    floatParameter: 0
    intParameter: 0
    messageOptions: 0
  - time: 0.18333334
    functionName: Thrustf
    data: 
    objectReferenceParameter: {fileID: 0}
    floatParameter: 0
    intParameter: 0
    messageOptions: 0
  - time: 0.2
    functionName: Thrustf
    data: 
    objectReferenceParameter: {fileID: 0}
    floatParameter: 0
    intParameter: 0
    messageOptions: 0
  - time: 0.21666667
    functionName: Thrustf
    data: 
    objectReferenceParameter: {fileID: 0}
    floatParameter: 0
    intParameter: 0
    messageOptions: 0
  - time: 0.23333333
    functionName: Thrustf
    data: 
    objectReferenceParameter: {fileID: 0}
    floatParameter: 0
    intParameter: 0
    messageOptions: 0
  - time: 0.25
    functionName: Thrustf
    data: 
    objectReferenceParameter: {fileID: 0}
    floatParameter: 0
    intParameter: 0
    messageOptions: 0
  - time: 0.26666668
    functionName: Thrustb
    data: 
    objectReferenceParameter: {fileID: 0}
    floatParameter: 0
    intParameter: 0
    messageOptions: 0
  - time: 0.28333333
    functionName: Thrustb
    data: 
    objectReferenceParameter: {fileID: 0}
    floatParameter: 0
    intParameter: 0
    messageOptions: 0
  - time: 0.3
    functionName: Thrustb
    data: 
    objectReferenceParameter: {fileID: 0}
    floatParameter: 0
    intParameter: 0
    messageOptions: 0
  - time: 0.31666666
    functionName: Thrustb
    data: 
    objectReferenceParameter: {fileID: 0}
    floatParameter: 0
    intParameter: 0
    messageOptions: 0
  - time: 0.33333334
    functionName: Thrustb
    data: 
    objectReferenceParameter: {fileID: 0}
    floatParameter: 0
    intParameter: 0
    messageOptions: 0
  - time: 0.35
    functionName: Thrustb
    data: 
    objectReferenceParameter: {fileID: 0}
    floatParameter: 0
    intParameter: 0
    messageOptions: 0
  - time: 0.36666667
    functionName: Thrustb
    data: 
    objectReferenceParameter: {fileID: 0}
    floatParameter: 0
    intParameter: 0
    messageOptions: 0
  - time: 0.38333333
    functionName: Thrustb
    data: 
    objectReferenceParameter: {fileID: 0}
    floatParameter: 0
    intParameter: 0
    messageOptions: 0
  - time: 0.4
    functionName: Thrustb
    data: 
    objectReferenceParameter: {fileID: 0}
    floatParameter: 0
    intParameter: 0
    messageOptions: 0
  - time: 0.41666666
    functionName: Thrustb
    data: 
    objectReferenceParameter: {fileID: 0}
    floatParameter: 0
    intParameter: 0
    messageOptions: 0
  - time: 0.43333334
    functionName: Thrustb
    data: 
    objectReferenceParameter: {fileID: 0}
    floatParameter: 0
    intParameter: 0
    messageOptions: 0
  - time: 0.45
    functionName: Thrustb
    data: 
    objectReferenceParameter: {fileID: 0}
    floatParameter: 0
    intParameter: 0
    messageOptions: 0
