%YAML 1.1
%TAG !u! tag:unity3d.com,2011:
--- !u!74 &7400000
AnimationClip:
  m_ObjectHideFlags: 0
  m_PrefabParentObject: {fileID: 0}
  m_PrefabInternal: {fileID: 0}
  m_Name: ThrustDBio
  serializedVersion: 6
  m_Legacy: 0
  m_Compressed: 0
  m_UseHighQualityCurve: 1
  m_RotationCurves: []
  m_CompressedRotationCurves: []
  m_EulerCurves: []
  m_PositionCurves: []
  m_ScaleCurves: []
  m_FloatCurves:
  - curve:
      serializedVersion: 2
      m_Curve:
      - serializedVersion: 2
        time: 0.26666668
        value: 1
        inSlope: 0
        outSlope: 0
        tangentMode: 136
      - serializedVersion: 2
        time: 0.53333336
        value: 0
        inSlope: 0
        outSlope: 0
        tangentMode: 136
      - serializedVersion: 2
        time: 0.8333333
        value: 0.828
        inSlope: 0
        outSlope: 0
        tangentMode: 136
      m_PreInfinity: 2
      m_PostInfinity: 2
      m_RotationOrder: 4
    attribute: m_Color.a
    path: 
    classID: 212
    script: {fileID: 0}
  - curve:
      serializedVersion: 2
      m_Curve:
      - serializedVersion: 2
        time: 0
        value: 1
        inSlope: Infinity
        outSlope: Infinity
        tangentMode: 103
      - serializedVersion: 2
        time: 1
        value: 1
        inSlope: Infinity
        outSlope: Infinity
        tangentMode: 103
      m_PreInfinity: 2
      m_PostInfinity: 2
      m_RotationOrder: 4
    attribute: CanAttack
    path: 
    classID: 114
    script: {fileID: 11500000, guid: 580c5d52c1c3d564896bf7601e779056, type: 3}
  m_PPtrCurves:
  - curve:
    - time: 0
      value: {fileID: 21300000, guid: ede7c35e4112efb4fae05095ed01cf9a, type: 3}
    - time: 0.033333335
      value: {fileID: 21300002, guid: ede7c35e4112efb4fae05095ed01cf9a, type: 3}
    - time: 0.06666667
      value: {fileID: 21300004, guid: ede7c35e4112efb4fae05095ed01cf9a, type: 3}
    - time: 0.1
      value: {fileID: 21300006, guid: ede7c35e4112efb4fae05095ed01cf9a, type: 3}
    - time: 0.13333334
      value: {fileID: 21300008, guid: ede7c35e4112efb4fae05095ed01cf9a, type: 3}
    - time: 0.16666667
      value: {fileID: 21300010, guid: ede7c35e4112efb4fae05095ed01cf9a, type: 3}
    - time: 0.2
      value: {fileID: 21300012, guid: ede7c35e4112efb4fae05095ed01cf9a, type: 3}
    - time: 0.23333333
      value: {fileID: 21300014, guid: ede7c35e4112efb4fae05095ed01cf9a, type: 3}
    - time: 0.26666668
      value: {fileID: 21300016, guid: ede7c35e4112efb4fae05095ed01cf9a, type: 3}
    - time: 0.3
      value: {fileID: 21300018, guid: ede7c35e4112efb4fae05095ed01cf9a, type: 3}
    - time: 0.33333334
      value: {fileID: 21300020, guid: ede7c35e4112efb4fae05095ed01cf9a, type: 3}
    - time: 0.36666667
      value: {fileID: 21300022, guid: ede7c35e4112efb4fae05095ed01cf9a, type: 3}
    - time: 0.4
      value: {fileID: 21300024, guid: ede7c35e4112efb4fae05095ed01cf9a, type: 3}
    - time: 0.43333334
      value: {fileID: 21300026, guid: ede7c35e4112efb4fae05095ed01cf9a, type: 3}
    - time: 0.46666667
      value: {fileID: 21300028, guid: ede7c35e4112efb4fae05095ed01cf9a, type: 3}
    - time: 0.5
      value: {fileID: 21300030, guid: ede7c35e4112efb4fae05095ed01cf9a, type: 3}
    - time: 0.53333336
      value: {fileID: 21300032, guid: ede7c35e4112efb4fae05095ed01cf9a, type: 3}
    - time: 0.56666666
      value: {fileID: 21300034, guid: ede7c35e4112efb4fae05095ed01cf9a, type: 3}
    - time: 0.6
      value: {fileID: 21300036, guid: ede7c35e4112efb4fae05095ed01cf9a, type: 3}
    - time: 0.6333333
      value: {fileID: 21300038, guid: ede7c35e4112efb4fae05095ed01cf9a, type: 3}
    - time: 0.6666667
      value: {fileID: 21300040, guid: ede7c35e4112efb4fae05095ed01cf9a, type: 3}
    - time: 0.7
      value: {fileID: 21300042, guid: ede7c35e4112efb4fae05095ed01cf9a, type: 3}
    - time: 0.73333335
      value: {fileID: 21300044, guid: ede7c35e4112efb4fae05095ed01cf9a, type: 3}
    - time: 0.76666665
      value: {fileID: 21300046, guid: ede7c35e4112efb4fae05095ed01cf9a, type: 3}
    - time: 0.8
      value: {fileID: 21300048, guid: ede7c35e4112efb4fae05095ed01cf9a, type: 3}
    - time: 0.8333333
      value: {fileID: 21300050, guid: ede7c35e4112efb4fae05095ed01cf9a, type: 3}
    - time: 0.8666667
      value: {fileID: 21300052, guid: ede7c35e4112efb4fae05095ed01cf9a, type: 3}
    - time: 0.9
      value: {fileID: 21300054, guid: ede7c35e4112efb4fae05095ed01cf9a, type: 3}
    - time: 0.93333334
      value: {fileID: 21300056, guid: ede7c35e4112efb4fae05095ed01cf9a, type: 3}
    - time: 0.96666664
      value: {fileID: 21300058, guid: ede7c35e4112efb4fae05095ed01cf9a, type: 3}
    attribute: m_Sprite
    path: 
    classID: 212
    script: {fileID: 0}
  m_SampleRate: 30
  m_WrapMode: 0
  m_Bounds:
    m_Center: {x: 0, y: 0, z: 0}
    m_Extent: {x: 0, y: 0, z: 0}
  m_ClipBindingConstant:
    genericBindings:
    - serializedVersion: 2
      path: 0
      attribute: 304273561
      script: {fileID: 0}
      typeID: 212
      customType: 0
      isPPtrCurve: 0
    - serializedVersion: 2
      path: 0
      attribute: 930100575
      script: {fileID: 11500000, guid: 580c5d52c1c3d564896bf7601e779056, type: 3}
      typeID: 114
      customType: 0
      isPPtrCurve: 0
    - serializedVersion: 2
      path: 0
      attribute: 0
      script: {fileID: 0}
      typeID: 212
      customType: 23
      isPPtrCurve: 1
    pptrCurveMapping:
    - {fileID: 21300000, guid: ede7c35e4112efb4fae05095ed01cf9a, type: 3}
    - {fileID: 21300002, guid: ede7c35e4112efb4fae05095ed01cf9a, type: 3}
    - {fileID: 21300004, guid: ede7c35e4112efb4fae05095ed01cf9a, type: 3}
    - {fileID: 21300006, guid: ede7c35e4112efb4fae05095ed01cf9a, type: 3}
    - {fileID: 21300008, guid: ede7c35e4112efb4fae05095ed01cf9a, type: 3}
    - {fileID: 21300010, guid: ede7c35e4112efb4fae05095ed01cf9a, type: 3}
    - {fileID: 21300012, guid: ede7c35e4112efb4fae05095ed01cf9a, type: 3}
    - {fileID: 21300014, guid: ede7c35e4112efb4fae05095ed01cf9a, type: 3}
    - {fileID: 21300016, guid: ede7c35e4112efb4fae05095ed01cf9a, type: 3}
    - {fileID: 21300018, guid: ede7c35e4112efb4fae05095ed01cf9a, type: 3}
    - {fileID: 21300020, guid: ede7c35e4112efb4fae05095ed01cf9a, type: 3}
    - {fileID: 21300022, guid: ede7c35e4112efb4fae05095ed01cf9a, type: 3}
    - {fileID: 21300024, guid: ede7c35e4112efb4fae05095ed01cf9a, type: 3}
    - {fileID: 21300026, guid: ede7c35e4112efb4fae05095ed01cf9a, type: 3}
    - {fileID: 21300028, guid: ede7c35e4112efb4fae05095ed01cf9a, type: 3}
    - {fileID: 21300030, guid: ede7c35e4112efb4fae05095ed01cf9a, type: 3}
    - {fileID: 21300032, guid: ede7c35e4112efb4fae05095ed01cf9a, type: 3}
    - {fileID: 21300034, guid: ede7c35e4112efb4fae05095ed01cf9a, type: 3}
    - {fileID: 21300036, guid: ede7c35e4112efb4fae05095ed01cf9a, type: 3}
    - {fileID: 21300038, guid: ede7c35e4112efb4fae05095ed01cf9a, type: 3}
    - {fileID: 21300040, guid: ede7c35e4112efb4fae05095ed01cf9a, type: 3}
    - {fileID: 21300042, guid: ede7c35e4112efb4fae05095ed01cf9a, type: 3}
    - {fileID: 21300044, guid: ede7c35e4112efb4fae05095ed01cf9a, type: 3}
    - {fileID: 21300046, guid: ede7c35e4112efb4fae05095ed01cf9a, type: 3}
    - {fileID: 21300048, guid: ede7c35e4112efb4fae05095ed01cf9a, type: 3}
    - {fileID: 21300050, guid: ede7c35e4112efb4fae05095ed01cf9a, type: 3}
    - {fileID: 21300052, guid: ede7c35e4112efb4fae05095ed01cf9a, type: 3}
    - {fileID: 21300054, guid: ede7c35e4112efb4fae05095ed01cf9a, type: 3}
    - {fileID: 21300056, guid: ede7c35e4112efb4fae05095ed01cf9a, type: 3}
    - {fileID: 21300058, guid: ede7c35e4112efb4fae05095ed01cf9a, type: 3}
  m_AnimationClipSettings:
    serializedVersion: 2
    m_AdditiveReferencePoseClip: {fileID: 0}
    m_AdditiveReferencePoseTime: 0
    m_StartTime: 0
    m_StopTime: 1
    m_OrientationOffsetY: 0
    m_Level: 0
    m_CycleOffset: 0
    m_HasAdditiveReferencePose: 0
    m_LoopTime: 0
    m_LoopBlend: 0
    m_LoopBlendOrientation: 0
    m_LoopBlendPositionY: 0
    m_LoopBlendPositionXZ: 0
    m_KeepOriginalOrientation: 0
    m_KeepOriginalPositionY: 1
    m_KeepOriginalPositionXZ: 0
    m_HeightFromFeet: 0
    m_Mirror: 0
  m_EditorCurves:
  - curve:
      serializedVersion: 2
      m_Curve:
      - serializedVersion: 2
        time: 0.26666668
        value: 1
        inSlope: 0
        outSlope: 0
        tangentMode: 136
      - serializedVersion: 2
        time: 0.53333336
        value: 0
        inSlope: 0
        outSlope: 0
        tangentMode: 136
      - serializedVersion: 2
        time: 0.8333333
        value: 0.828
        inSlope: 0
        outSlope: 0
        tangentMode: 136
      m_PreInfinity: 2
      m_PostInfinity: 2
      m_RotationOrder: 4
    attribute: m_Color.a
    path: 
    classID: 212
    script: {fileID: 0}
  - curve:
      serializedVersion: 2
      m_Curve:
      - serializedVersion: 2
        time: 0
        value: 1
        inSlope: Infinity
        outSlope: Infinity
        tangentMode: 103
      - serializedVersion: 2
        time: 1
        value: 1
        inSlope: Infinity
        outSlope: Infinity
        tangentMode: 103
      m_PreInfinity: 2
      m_PostInfinity: 2
      m_RotationOrder: 4
    attribute: CanAttack
    path: 
    classID: 114
    script: {fileID: 11500000, guid: 580c5d52c1c3d564896bf7601e779056, type: 3}
  m_EulerEditorCurves: []
  m_HasGenericRootTransform: 0
  m_HasMotionFloatCurves: 0
  m_GenerateMotionCurves: 0
  m_Events: []
